<?xml version="1.0"?>
<!-- Created by MetaPost 2.02 on 2022.09.07:1228 -->
<svg version="1.1" xmlns="http://www.w3.org/2000/svg" xmlns:xlink="http://www.w3.org/1999/xlink" width="1317.065308" height="2153.925049" viewBox="0 0 1317.065308 2153.925049">
<!-- Original BoundingBox: -1.000000 -479.205566 1316.065308 1674.719482 -->
  <g transform="matrix(0.939691,0.342024,-0.342024,0.939691,0.000000,0.000000)">
    <path d="M1243.814921 268.518274L1557.300336 1129.802405" style="stroke:rgb(0.000000%,0.000000%,0.000000%); stroke-width: 159.402861;stroke-linecap: square;stroke-linejoin: bevel;stroke-miterlimit: 10.000000;fill: none;"></path>
  </g>
  <g transform="matrix(0.939691,0.342024,-0.342024,0.939691,0.000000,0.000000)">
    <path d="M842.831512 390.232756C719.051968 435.285346,626.150771 538.871742,591.441481 666.025844C562.653070 771.489343,576.782565 882.672336,614.167770 985.386153C651.552974 1088.099969,712.196904 1182.352896,802.041200 1244.637122C910.363698 1319.731308,1048.114342 1339.366328,1171.893886 1294.313737C1295.673430 1249.261146,1388.574627 1145.674750,1423.283918 1018.520648C1452.072328 913.057149,1437.942833 801.874156,1400.557629 699.160340C1363.172424 596.446523,1302.528494 502.193596,1212.684199 439.909371C1104.361705 364.815199,966.611056 345.180165,842.831512 390.232756Z" style="stroke:rgb(0.000000%,0.000000%,0.000000%); stroke-width: 159.402861;stroke-linecap: square;stroke-linejoin: bevel;stroke-miterlimit: 10.000000;fill: none;"></path>
  </g>
  <path d="M1.000000 2152.205566L1316.065308 2152.205566L1316.065308 0.280518L1.000000 0.280518Z" style="stroke:rgb(100.000000%,100.000000%,100.000000%); stroke-width: 2.000000;stroke-linecap: square;stroke-linejoin: bevel;stroke-miterlimit: 10.000000;fill: none;"></path>
</svg>
