<?xml version="1.0"?>
<!-- Created by MetaPost 2.02 on 2022.09.07:1228 -->
<svg version="1.1" xmlns="http://www.w3.org/2000/svg" xmlns:xlink="http://www.w3.org/1999/xlink" width="1317.065308" height="2153.925049" viewBox="0 0 1317.065308 2153.925049">
<!-- Original BoundingBox: -1.000000 -479.205566 1316.065308 1674.719482 -->
  <g transform="matrix(0.939691,0.342024,-0.342024,0.939691,0.000000,0.000000)">
    <path d="M1264.889393 497.693734C1171.912146 364.909562,994.514768 326.699764,842.831512 390.232756C728.443154 438.144660,643.868825 537.645804,613.628727 657.950254C587.150904 763.287201,605.118219 873.137677,642.253122 975.163802C679.388024 1077.189927,736.235499 1172.889019,824.228446 1236.561531C924.724455 1309.281379,1053.470429 1331.139383,1171.893886 1294.313737C1328.927858 1245.481546,1440.260283 1102.181478,1426.131765 940.698384" style="stroke:rgb(0.000000%,0.000000%,0.000000%); stroke-width: 159.402861;stroke-linecap: square;stroke-linejoin: bevel;stroke-miterlimit: 10.000000;fill: none;"></path>
  </g>
  <path d="M1.000000 2152.205566L1316.065308 2152.205566L1316.065308 0.280518L1.000000 0.280518Z" style="stroke:rgb(100.000000%,100.000000%,100.000000%); stroke-width: 2.000000;stroke-linecap: square;stroke-linejoin: bevel;stroke-miterlimit: 10.000000;fill: none;"></path>
</svg>
