<?xml version="1.0"?>
<!-- Created by MetaPost 2.02 on 2022.09.07:1228 -->
<svg version="1.1" xmlns="http://www.w3.org/2000/svg" xmlns:xlink="http://www.w3.org/1999/xlink" width="1317.065308" height="2153.925049" viewBox="0 0 1317.065308 2153.925049">
<!-- Original BoundingBox: -1.000000 -479.205566 1316.065308 1674.719482 -->
  <g transform="matrix(0.939691,0.342024,-0.342024,0.939691,0.000000,0.000000)">
    <path d="M485.510415 544.521737L642.253122 975.163802C678.911442 1075.880545,728.700784 1173.780126,812.432219 1240.855056C897.751113 1309.201662,1008.796850 1337.268515,1115.723182 1314.758438C1248.566428 1286.792347,1353.480214 1187.273680,1399.604549 1059.199729C1431.178227 971.528749,1432.962092 875.575169,1401.094733 788.021332" style="stroke:rgb(0.000000%,0.000000%,0.000000%); stroke-width: 159.402861;stroke-linecap: square;stroke-linejoin: bevel;stroke-miterlimit: 10.000000;fill: none;"></path>
  </g>
  <g transform="matrix(0.939691,0.342024,-0.342024,0.939691,0.000000,0.000000)">
    <path d="M1529.214984 1140.024756L1215.729569 278.740624" style="stroke:rgb(0.000000%,0.000000%,0.000000%); stroke-width: 159.402861;stroke-linecap: square;stroke-linejoin: bevel;stroke-miterlimit: 10.000000;fill: none;"></path>
  </g>
  <path d="M1.000000 2152.205566L1316.065308 2152.205566L1316.065308 0.280518L1.000000 0.280518Z" style="stroke:rgb(100.000000%,100.000000%,100.000000%); stroke-width: 2.000000;stroke-linecap: square;stroke-linejoin: bevel;stroke-miterlimit: 10.000000;fill: none;"></path>
</svg>
