<?xml version="1.0"?>
<!-- Created by MetaPost 2.02 on 2022.09.07:1228 -->
<svg version="1.1" xmlns="http://www.w3.org/2000/svg" xmlns:xlink="http://www.w3.org/1999/xlink" width="1317.065308" height="2153.925049" viewBox="0 0 1317.065308 2153.925049">
<!-- Original BoundingBox: -1.000000 -479.205566 1316.065308 1674.719482 -->
  <g transform="matrix(0.939691,0.342024,-0.342024,0.939691,0.000000,0.000000)">
    <path d="M1115.609524 113.072410C1010.645022 9.630536,851.041736 -14.530705,720.163306 53.208530C597.550526 116.669690,527.874465 245.703745,508.603111 383.205711C488.330906 527.848649,522.128246 672.793481,575.301604 808.696285C629.248855 946.577022,704.353187 1077.935634,821.302860 1168.925236C953.770772 1271.988403,1127.562237 1311.503176,1284.235295 1253.424335C1374.796283 1219.853294,1450.462030 1155.161973,1497.700823 1070.919448L1318.433983 578.393554L998.262002 694.927974" style="stroke:rgb(0.000000%,0.000000%,0.000000%); stroke-width: 159.402861;stroke-linecap: square;stroke-linejoin: bevel;stroke-miterlimit: 10.000000;fill: none;"></path>
  </g>
  <path d="M1.000000 2152.205566L1316.065308 2152.205566L1316.065308 0.280518L1.000000 0.280518Z" style="stroke:rgb(100.000000%,100.000000%,100.000000%); stroke-width: 2.000000;stroke-linecap: square;stroke-linejoin: bevel;stroke-miterlimit: 10.000000;fill: none;"></path>
</svg>
