<?xml version="1.0"?>
<!-- Created by MetaPost 2.02 on 2022.09.07:1228 -->
<svg version="1.1" xmlns="http://www.w3.org/2000/svg" xmlns:xlink="http://www.w3.org/1999/xlink" width="1317.065308" height="2153.925049" viewBox="0 0 1317.065308 2153.925049">
<!-- Original BoundingBox: -1.000000 -479.205566 1316.065308 1674.719482 -->
  <g transform="matrix(0.939691,0.342024,-0.342024,0.939691,0.000000,0.000000)">
    <path d="M1171.893886 1294.313737C1238.855484 1269.941426,1309.490612 1248.852397,1359.340016 1197.614489C1432.260445 1122.662938,1439.786190 1011.287747,1429.273436 906.515993C1414.367703 757.963079,1369.809659 614.681964,1318.778825 474.477523C1267.747991 334.273081,1209.781078 195.872452,1125.710643 72.493722C1066.417261 -14.523130,989.061000 -95.003439,885.022704 -105.546537C813.900698 -112.753943,746.235502 -83.505189,679.273905 -59.132878C612.312307 -34.760568,541.677179 -13.671539,491.827775 37.566370C418.907346 112.517921,411.381601 223.893111,421.894354 328.664866C436.800088 477.217779,481.358132 620.498895,532.388966 760.703336C583.419800 900.907777,641.386713 1039.308407,725.457148 1162.687136C784.750530 1249.703989,862.106791 1330.184298,966.145087 1340.727396C1037.267092 1347.934802,1104.932289 1318.686047,1171.893886 1294.313737Z" style="stroke:rgb(0.000000%,0.000000%,0.000000%); stroke-width: 159.402861;stroke-linecap: square;stroke-linejoin: bevel;stroke-miterlimit: 10.000000;fill: none;"></path>
  </g>
  <path d="M1.000000 2152.205566L1316.065308 2152.205566L1316.065308 0.280518L1.000000 0.280518Z" style="stroke:rgb(100.000000%,100.000000%,100.000000%); stroke-width: 2.000000;stroke-linecap: square;stroke-linejoin: bevel;stroke-miterlimit: 10.000000;fill: none;"></path>
</svg>
