<?xml version="1.0"?>
<!-- Created by MetaPost 2.02 on 2022.09.07:1228 -->
<svg version="1.1" xmlns="http://www.w3.org/2000/svg" xmlns:xlink="http://www.w3.org/1999/xlink" width="1317.065308" height="2153.925049" viewBox="0 0 1317.065308 2153.925049">
<!-- Original BoundingBox: -1.000000 -479.205566 1316.065308 1674.719482 -->
  <g transform="matrix(0.939691,0.342024,-0.342024,0.939691,0.000000,0.000000)">
    <path d="M1018.061231 1326.071659C1120.269803 1127.699341,1193.036294 915.496170,1234.068753 696.145983C1265.484277 528.205727,1277.532651 353.408987,1216.555320 193.624002C1181.938383 102.913779,1124.252557 21.520434,1041.766486 -29.677751C933.388761 -96.946594,799.296513 -103.106348,679.273905 -59.132878C559.448099 -15.231511,461.278119 75.743446,420.523768 196.438723C389.377313 288.679926,395.820775 388.729427,430.165461 479.849815C462.956021 566.846923,520.386874 643.354442,600.405985 690.655333C709.039720 754.870889,841.659466 756.890401,960.340137 713.081315C1078.613828 669.422470,1177.670150 582.454371,1221.648703 464.538859C1254.352633 376.852933,1252.532076 280.018674,1216.555320 193.624002" style="stroke:rgb(0.000000%,0.000000%,0.000000%); stroke-width: 159.402861;stroke-linecap: square;stroke-linejoin: bevel;stroke-miterlimit: 10.000000;fill: none;"></path>
  </g>
  <path d="M1.000000 2152.205566L1316.065308 2152.205566L1316.065308 0.280518L1.000000 0.280518Z" style="stroke:rgb(100.000000%,100.000000%,100.000000%); stroke-width: 2.000000;stroke-linecap: square;stroke-linejoin: bevel;stroke-miterlimit: 10.000000;fill: none;"></path>
</svg>
