<?xml version="1.0"?>
<!-- Created by MetaPost 2.02 on 2022.09.07:1228 -->
<svg version="1.1" xmlns="http://www.w3.org/2000/svg" xmlns:xlink="http://www.w3.org/1999/xlink" width="1317.065308" height="2153.925049" viewBox="0 0 1317.065308 2153.925049">
<!-- Original BoundingBox: -1.000000 -479.205566 1316.065308 1674.719482 -->
  <g transform="matrix(0.939691,0.342024,-0.342024,0.939691,0.000000,0.000000)">
    <path d="M818.404165 847.437271L1155.429681 724.768596C1200.066310 708.522003,1206.383500 650.442381,1168.594813 629.859749L950.404848 511.016668C908.282811 488.073756,855.584756 507.254485,838.065155 551.905429L747.314680 783.194611C731.597272 823.252468,773.768812 863.683399,818.404165 847.437271Z" style="stroke:rgb(0.000000%,0.000000%,0.000000%); stroke-width: 159.402861;stroke-linecap: round;stroke-linejoin: round;stroke-miterlimit: 10.000000;fill: none;"></path>
  </g>
  <path d="M1.000000 2152.205566L1316.065308 2152.205566L1316.065308 0.280518L1.000000 0.280518Z" style="stroke:rgb(100.000000%,100.000000%,100.000000%); stroke-width: 2.000000;stroke-linecap: round;stroke-linejoin: round;stroke-miterlimit: 10.000000;fill: none;"></path>
</svg>
