<?xml version="1.0"?>
<!-- Created by MetaPost 2.02 on 2022.09.07:1228 -->
<svg version="1.1" xmlns="http://www.w3.org/2000/svg" xmlns:xlink="http://www.w3.org/1999/xlink" width="1317.065308" height="2153.925049" viewBox="0 0 1317.065308 2153.925049">
<!-- Original BoundingBox: -1.000000 -479.205566 1316.065308 1674.719482 -->
  <path d="M658.532654 598.037476C567.444199 598.037476,479.149399 634.596375,422.420670 705.633911C379.334198 759.588181,359.654175 827.856323,359.654175 896.915955C359.654175 965.975586,379.334198 1034.243729,422.420670 1088.197998C479.149399 1159.235535,567.444199 1195.794434,658.532654 1195.794434C749.621109 1195.794434,837.915909 1159.235535,894.644638 1088.197998C937.731110 1034.243729,957.411133 965.975586,957.411133 896.915955C957.411133 827.856323,937.731110 759.588181,894.644638 705.633911C837.915909 634.596375,749.621109 598.037476,658.532654 598.037476Z" style="fill: rgb(0.000000%,0.000000%,0.000000%);stroke: none;"></path>
  <path d="M1.000000 2152.205566L1316.065308 2152.205566L1316.065308 0.280518L1.000000 0.280518Z" style="stroke:rgb(100.000000%,100.000000%,100.000000%); stroke-width: 2.000000;stroke-linecap: square;stroke-linejoin: bevel;stroke-miterlimit: 10.000000;fill: none;"></path>
</svg>
