<?xml version="1.0"?>
<!-- Created by MetaPost 2.02 on 2022.09.07:1228 -->
<svg version="1.1" xmlns="http://www.w3.org/2000/svg" xmlns:xlink="http://www.w3.org/1999/xlink" width="1317.065308" height="2153.925049" viewBox="0 0 1317.065308 2153.925049">
<!-- Original BoundingBox: -1.000000 -479.205566 1316.065308 1674.719482 -->
  <path d="M662.517334 1849.342407L622.623123 1809.535675L542.922195 1889.236603L582.816406 1929.043335C598.597183 1944.789505,617.848541 1951.784332,636.706085 1951.784332L716.407013 1951.784332C756.186600 1951.784332,794.213791 1920.658051,794.213806 1874.893967L794.213806 1795.193039C794.213806 1793.341202,794.151535 1791.465393,794.024597 1789.566711C791.487930 1751.623734,759.768417 1724.593628,724.653748 1724.593628L644.952820 1724.593628C636.273560 1724.593628,627.386887 1726.244965,618.682190 1729.791016L698.383118 1729.791016L698.383118 1577.220367L698.383118 1497.519440L618.682190 1577.220367L618.682190 1656.921295L618.682190 1809.491943L698.383118 1809.491943C707.087814 1805.945892,715.974487 1804.294556,724.653748 1804.294556L644.952820 1804.294556C680.067490 1804.294556,711.787003 1831.324661,714.323669 1869.267639C714.450607 1871.166321,714.512878 1873.042130,714.512878 1874.893967L714.512878 1795.193039C714.512863 1840.957123,676.485657 1872.083405,636.706070 1872.083405L716.406998 1872.083405C697.549454 1872.083405,678.298111 1865.088577,662.517334 1849.342407Z" style="fill: rgb(0.000000%,0.000000%,0.000000%);stroke: none;"></path>
  <path d="M1.000000 2152.205566L1316.065308 2152.205566L1316.065308 0.280518L1.000000 0.280518Z" style="stroke:rgb(100.000000%,100.000000%,100.000000%); stroke-width: 2.000000;stroke-linecap: square;stroke-linejoin: bevel;stroke-miterlimit: 10.000000;fill: none;"></path>
</svg>
