<?xml version="1.0" encoding="UTF-8"?>
<glyph name="five" format="2">
  <advance width="611"/>
  <unicode hex="0035"/>
  <outline>
    <contour>
      <point x="364.478" y="458.214" type="curve" smooth="yes"/>
      <point x="499.362" y="409.119"/>
      <point x="492.846" y="282.341"/>
      <point x="466.424" y="209.748" type="curve" smooth="yes"/>
      <point x="421.322" y="85.8359"/>
      <point x="284.571" y="-1.23535"/>
      <point x="137.729" y="22.9346" type="curve" smooth="yes"/>
      <point x="128.592" y="24.4385" type="line"/>
      <point x="131.597" y="42.6963" type="line"/>
      <point x="140.719" y="41.1953" type="line" smooth="yes"/>
      <point x="305.963" y="13.9971"/>
      <point x="455.272" y="136.616"/>
      <point x="463.008" y="284.167" type="curve" smooth="yes"/>
      <point x="465.096" y="324.009"/>
      <point x="455.034" y="363.423"/>
      <point x="430.185" y="393.194" type="curve" smooth="yes"/>
      <point x="400.003" y="429.354"/>
      <point x="353.195" y="446.021"/>
      <point x="304.087" y="454.967" type="curve" smooth="yes"/>
      <point x="255.521" y="463.813"/>
      <point x="205.931" y="465.651"/>
      <point x="156.845" y="460.42" type="curve"/>
      <point x="146.635" y="470.104" type="line"/>
      <point x="160.512" y="735.599" type="line"/>
      <point x="169.756" y="744.367" type="line"/>
      <point x="464.85" y="744.368" type="line"/>
      <point x="464.85" y="725.863" type="line"/>
      <point x="178.533" y="725.862" type="line"/>
      <point x="165.675" y="479.859" type="line"/>
      <point x="272.522" y="489.062"/>
      <point x="349.131" y="463.8"/>
    </contour>
  </outline>
  <lib>
    <dict>
      <key>com.fontlab.hintData</key>
      <dict>
        <key>hhints</key>
        <array>
          <dict>
            <key>position</key>
            <integer>24</integer>
            <key>width</key>
            <integer>18</integer>
          </dict>
          <dict>
            <key>position</key>
            <integer>726</integer>
            <key>width</key>
            <integer>19</integer>
          </dict>
        </array>
      </dict>
    </dict>
  </lib>
</glyph>
