<?xml version="1.0" encoding="UTF-8"?>
<glyph name="g" format="2">
  <advance width="611"/>
  <unicode hex="0067"/>
  <outline>
    <contour>
      <point x="217.685" y="-150.467" type="curve" smooth="yes"/>
      <point x="166.097" y="-131.689"/>
      <point x="139.536" y="-100.235"/>
      <point x="124.688" y="-82.6533" type="curve"/>
      <point x="138.825" y="-70.7168" type="line"/>
      <point x="144.786" y="-77.7754" type="line" smooth="yes"/>
      <point x="166.403" y="-103.376"/>
      <point x="193.885" y="-122.115"/>
      <point x="224.013" y="-133.081" type="curve" smooth="yes"/>
      <point x="322.66" y="-168.986"/>
      <point x="435.229" y="-117.905"/>
      <point x="476.077" y="-5.67871" type="curve" smooth="yes"/>
      <point x="485.658" y="20.6445"/>
      <point x="490.746" y="49.1582"/>
      <point x="490.746" y="78.3223" type="curve" smooth="yes"/>
      <point x="490.748" y="503.85" type="line"/>
      <point x="509.253" y="503.85" type="line"/>
      <point x="509.251" y="78.3145" type="line" smooth="yes"/>
      <point x="509.251" y="47.0176"/>
      <point x="503.805" y="16.4053"/>
      <point x="493.463" y="-12.0059" type="curve" smooth="yes"/>
      <point x="449.186" y="-133.655"/>
      <point x="326.099" y="-189.927"/>
    </contour>
    <contour>
      <point x="137.3" y="378.96" type="curve" smooth="yes"/>
      <point x="125.534" y="346.634"/>
      <point x="120.725" y="311.329"/>
      <point x="120.725" y="275.882" type="curve" smooth="yes"/>
      <point x="120.724" y="116.233"/>
      <point x="216.489" y="67.3906"/>
      <point x="250.048" y="55.1758" type="curve" smooth="yes"/>
      <point x="338.654" y="22.9258"/>
      <point x="437.342" y="71.624"/>
      <point x="474.172" y="172.812" type="curve" smooth="yes"/>
      <point x="485.938" y="205.139"/>
      <point x="490.748" y="240.442"/>
      <point x="490.747" y="275.891" type="curve" smooth="yes"/>
      <point x="490.747" y="435.538"/>
      <point x="394.981" y="484.381"/>
      <point x="361.424" y="496.596" type="curve" smooth="yes"/>
      <point x="272.811" y="528.849"/>
      <point x="174.127" y="480.139"/>
    </contour>
    <contour>
      <point x="367.752" y="513.981" type="curve" smooth="yes"/>
      <point x="407.973" y="499.342"/>
      <point x="442.661" y="471.102"/>
      <point x="466.908" y="434.511" type="curve" smooth="yes"/>
      <point x="521.479" y="352.159"/>
      <point x="516.291" y="234.439"/>
      <point x="491.558" y="166.484" type="curve" smooth="yes"/>
      <point x="451.229" y="55.6826"/>
      <point x="341.94" y="2.04004"/>
      <point x="243.72" y="37.79" type="curve" smooth="yes"/>
      <point x="203.499" y="52.4297"/>
      <point x="168.811" y="80.6699"/>
      <point x="144.563" y="117.261" type="curve" smooth="yes"/>
      <point x="89.9756" y="199.638"/>
      <point x="95.1943" y="317.372"/>
      <point x="119.914" y="385.287" type="curve" smooth="yes"/>
      <point x="160.243" y="496.089"/>
      <point x="269.532" y="549.73"/>
    </contour>
  </outline>
  <lib>
    <dict>
      <key>com.fontlab.hintData</key>
      <dict>
        <key>vhints</key>
        <array>
          <dict>
            <key>position</key>
            <integer>491</integer>
            <key>width</key>
            <integer>19</integer>
          </dict>
        </array>
      </dict>
    </dict>
  </lib>
</glyph>
