<?xml version="1.0" encoding="UTF-8"?>
<glyph name="p" format="2">
  <advance width="611"/>
  <unicode hex="0070"/>
  <outline>
    <contour>
      <point x="102.22" y="-199.204" type="line"/>
      <point x="102.22" y="522.352" type="line"/>
      <point x="120.724" y="522.352" type="line"/>
      <point x="120.725" y="-199.204" type="line"/>
    </contour>
    <contour>
      <point x="137.637" y="378.11" type="curve" smooth="yes"/>
      <point x="125.592" y="345.018"/>
      <point x="120.724" y="308.866"/>
      <point x="120.724" y="272.578" type="curve" smooth="yes"/>
      <point x="120.726" y="96.6367"/>
      <point x="234.235" y="54.4766"/>
      <point x="250.828" y="48.4365" type="curve" smooth="yes"/>
      <point x="339.235" y="16.2588"/>
      <point x="436.987" y="65.8164"/>
      <point x="473.835" y="167.054" type="curve" smooth="yes"/>
      <point x="485.88" y="200.146"/>
      <point x="490.748" y="236.297"/>
      <point x="490.748" y="272.586" type="curve" smooth="yes"/>
      <point x="490.747" y="448.526"/>
      <point x="377.238" y="490.687"/>
      <point x="360.643" y="496.728" type="curve" smooth="yes"/>
      <point x="272.236" y="528.905"/>
      <point x="174.485" y="479.35"/>
    </contour>
    <contour>
      <point x="366.971" y="514.113" type="curve" smooth="yes"/>
      <point x="407.661" y="499.303"/>
      <point x="442.624" y="470.44"/>
      <point x="466.938" y="433.275" type="curve" smooth="yes"/>
      <point x="521.77" y="349.465"/>
      <point x="516.232" y="229.444"/>
      <point x="491.221" y="160.726" type="curve" smooth="yes"/>
      <point x="450.862" y="49.8428"/>
      <point x="342.513" y="-4.62305"/>
      <point x="244.501" y="31.0508" type="curve" smooth="yes"/>
      <point x="203.81" y="45.8613"/>
      <point x="168.848" y="74.7236"/>
      <point x="144.533" y="111.889" type="curve" smooth="yes"/>
      <point x="89.7021" y="195.698"/>
      <point x="95.2393" y="315.718"/>
      <point x="120.251" y="384.438" type="curve" smooth="yes"/>
      <point x="160.615" y="495.336"/>
      <point x="268.972" y="549.782"/>
    </contour>
  </outline>
  <lib>
    <dict>
      <key>com.fontlab.hintData</key>
      <dict>
        <key>hhints</key>
        <array>
          <dict>
            <key>position</key>
            <integer>502</integer>
            <key>width</key>
            <integer>20</integer>
          </dict>
        </array>
        <key>vhints</key>
        <array>
          <dict>
            <key>position</key>
            <integer>102</integer>
            <key>width</key>
            <integer>19</integer>
          </dict>
        </array>
      </dict>
    </dict>
  </lib>
</glyph>
