<?xml version="1.0" encoding="UTF-8"?>
<glyph name="z" format="2">
  <advance width="611"/>
  <unicode hex="007A"/>
  <outline>
    <contour>
      <point x="143.848" y="522.352" type="line"/>
      <point x="452.825" y="522.352" type="line"/>
      <point x="460.609" y="508.104" type="line"/>
      <point x="161.687" y="41.3174" type="line"/>
      <point x="484.275" y="41.3174" type="line"/>
      <point x="484.275" y="22.8125" type="line"/>
      <point x="144.771" y="22.8125" type="line"/>
      <point x="136.985" y="37.0586" type="line"/>
      <point x="435.909" y="503.847" type="line"/>
      <point x="143.847" y="503.847" type="line"/>
    </contour>
  </outline>
  <lib>
    <dict>
      <key>com.fontlab.hintData</key>
      <dict>
        <key>hhints</key>
        <array>
          <dict>
            <key>position</key>
            <integer>23</integer>
            <key>width</key>
            <integer>19</integer>
          </dict>
          <dict>
            <key>position</key>
            <integer>504</integer>
            <key>width</key>
            <integer>19</integer>
          </dict>
        </array>
      </dict>
    </dict>
  </lib>
</glyph>
