<?xml version="1.0"?>
<!-- Created by MetaPost 2.02 on 2022.09.01:2316 -->
<svg version="1.1" xmlns="http://www.w3.org/2000/svg" xmlns:xlink="http://www.w3.org/1999/xlink" width="1317.065308" height="2153.925049" viewBox="0 0 1317.065308 2153.925049">
<!-- Original BoundingBox: -1.000000 -479.205566 1316.065308 1674.719482 -->
  <g transform="matrix(0.939691,0.342024,-0.342024,0.939691,0.000000,0.000000)">
    <path d="M806.632918 1339.414138L1480.683972 1094.076848C1576.351296 1059.256397,1583.060046 920.505160,1486.569557 848.088451L1005.211068 486.826008C922.761854 424.947376,803.915896 468.204240,780.531675 568.603510L644.009190 1154.757899C616.642379 1272.256396,710.967386 1374.233938,806.632918 1339.414138Z" style="stroke:rgb(0.000000%,0.000000%,0.000000%); stroke-width: 39.850714;stroke-linecap: round;stroke-linejoin: round;stroke-miterlimit: 10.000000;fill: none;"></path>
  </g>
  <path d="M1.000000 2152.205566L1316.065308 2152.205566L1316.065308 0.280518L1.000000 0.280518Z" style="stroke:rgb(100.000000%,100.000000%,100.000000%); stroke-width: 2.000000;stroke-linecap: round;stroke-linejoin: round;stroke-miterlimit: 10.000000;fill: none;"></path>
</svg>
