<?xml version="1.0" encoding="UTF-8"?>
<glyph name="q.ss02" format="2">
	<advance width="467"/>
	<outline>
		<contour>
			<point x="354" y="0" type="line"/>
			<point x="354" y="554" type="line"/>
			<point x="397" y="554" type="line"/>
			<point x="397" y="0" type="line"/>
		</contour>
		<contour>
			<point x="57" y="557" type="line"/>
			<point x="57" y="600" type="line"/>
			<point x="350" y="600" type="line"/>
			<point x="350" y="557" type="line"/>
		</contour>
		<contour>
			<point x="318" y="231" type="line"/>
			<point x="20" y="519" type="line"/>
			<point x="49" y="551" type="line"/>
			<point x="348" y="262" type="line"/>
		</contour>
	</outline>
</glyph>
