<?xml version='1.0'?><svg version='1.1' xmlns='http://www.w3.org/2000/svg' xmlns:xlink='http://www.w3.org/1999/xlink' width='482.92394626666663' height='215.3925049' viewBox='0 0 4829.239462666666 2153.925049'><g transform='translate(439.02176933333334, 0)'><g xmlns:ns0="http://www.w3.org/2000/svg" transform="matrix(0.939691,0.342024,-0.342024,0.939691,0.000000,0.000000)">
    <path d="M442.597731 496.528827L849.398796 1451.072557" style="stroke:rgb(0.000000%,0.000000%,0.000000%); stroke-width: 39.850714;stroke-linecap: square;stroke-linejoin: bevel;stroke-miterlimit: 10.000000;fill: none;" />
  </g>
  <g xmlns:ns0="http://www.w3.org/2000/svg" transform="matrix(0.939691,0.342024,-0.342024,0.939691,0.000000,0.000000)">
    <path d="M999.187346 1396.553368L991.007117 797.337460L1369.912629 1261.618877" style="stroke:rgb(0.000000%,0.000000%,0.000000%); stroke-width: 39.850714;stroke-linecap: square;stroke-linejoin: bevel;stroke-miterlimit: 10.000000;fill: none;" />
  </g>
  <g xmlns:ns0="http://www.w3.org/2000/svg" transform="matrix(0.939691,0.342024,-0.342024,0.939691,0.000000,0.000000)">
    <path d="M1519.701179 1207.099688L1217.752787 214.392275" style="stroke:rgb(0.000000%,0.000000%,0.000000%); stroke-width: 39.850714;stroke-linecap: square;stroke-linejoin: bevel;stroke-miterlimit: 10.000000;fill: none;" />
  </g>
  </g><g transform='translate(1756.0870773333334, 0)'><g xmlns:ns0="http://www.w3.org/2000/svg" transform="matrix(0.939691,0.342024,-0.342024,0.939691,0.000000,0.000000)">
    <path d="M1133.713788 437.901843C1055.137961 355.739351,938.436576 322.201545,828.228142 350.110952C743.461976 371.577301,671.402139 428.129029,634.121372 507.151381C595.095248 589.873271,599.910329 688.186868,658.437116 757.472709C739.606240 853.563266,878.453003 851.294349,1005.534674 837.251144C1166.061490 819.512084,1345.426381 827.324680,1396.670612 968.115458C1421.999435 1037.705042,1409.807076 1114.315728,1373.912714 1179.273607C1333.333321 1252.709963,1265.875758 1307.210492,1186.497105 1334.435722C1062.903464 1376.825774,926.087304 1350.163608,827.454638 1264.467046" style="stroke:rgb(0.000000%,0.000000%,0.000000%); stroke-width: 39.850714;stroke-linecap: square;stroke-linejoin: bevel;stroke-miterlimit: 10.000000;fill: none;" />
  </g>
  </g><g transform='translate(3073.1523853333333, 0)'><g xmlns:ns0="http://www.w3.org/2000/svg" transform="matrix(0.939691,0.342024,-0.342024,0.939691,0.000000,0.000000)">
    <path d="M869.117534 462.452364C756.883747 503.302583,666.647987 590.531687,630.451727 704.170762C602.253709 792.699157,610.471851 887.846764,642.253034 975.163860C674.034217 1062.480956,728.899025 1140.650374,807.405275 1190.341152C908.179463 1254.126514,1033.373926 1262.944529,1145.607713 1222.094310C1257.841500 1181.244091,1348.077259 1094.014986,1384.273520 980.375911C1412.471537 891.847517,1404.253396 796.699910,1372.472213 709.382814C1340.691030 622.065717,1285.826221 543.896300,1207.319971 494.205521C1106.545784 430.420159,981.351321 421.602145,869.117534 462.452364Z" style="stroke:rgb(0.000000%,0.000000%,0.000000%); stroke-width: 39.850714;stroke-linecap: square;stroke-linejoin: bevel;stroke-miterlimit: 10.000000;fill: none;" />
  </g>
  </g></svg>