<?xml version='1.0'?><svg version='1.1' xmlns='http://www.w3.org/2000/svg' xmlns:xlink='http://www.w3.org/1999/xlink' width='974.62832792' height='466.6837606166667' viewBox='0 0 10404.8159332 4666.837606166667'><g transform='translate(526.8261232, 358.98750816666666)'><g xmlns:ns0="http://www.w3.org/2000/svg" transform="matrix(0.939691,0.342024,-0.342024,0.939691,0.000000,0.000000)">
    <path d="M442.597731 496.528827L849.398796 1451.072557" style="stroke:rgb(0.000000%,0.000000%,0.000000%); stroke-width: 39.850714;stroke-linecap: square;stroke-linejoin: bevel;stroke-miterlimit: 10.000000;fill: none;" />
  </g>
  <g xmlns:ns0="http://www.w3.org/2000/svg" transform="matrix(0.939691,0.342024,-0.342024,0.939691,0.000000,0.000000)">
    <path d="M999.187346 1396.553368L991.007117 797.337460L1369.912629 1261.618877" style="stroke:rgb(0.000000%,0.000000%,0.000000%); stroke-width: 39.850714;stroke-linecap: square;stroke-linejoin: bevel;stroke-miterlimit: 10.000000;fill: none;" />
  </g>
  <g xmlns:ns0="http://www.w3.org/2000/svg" transform="matrix(0.939691,0.342024,-0.342024,0.939691,0.000000,0.000000)">
    <path d="M1519.701179 1207.099688L1217.752787 214.392275" style="stroke:rgb(0.000000%,0.000000%,0.000000%); stroke-width: 39.850714;stroke-linecap: square;stroke-linejoin: bevel;stroke-miterlimit: 10.000000;fill: none;" />
  </g>
  </g><g transform='translate(1843.8914312, 358.98750816666666)'><g xmlns:ns0="http://www.w3.org/2000/svg" transform="matrix(0.939691,0.342024,-0.342024,0.939691,0.000000,0.000000)">
    <path d="M1223.370201 212.347680L1577.744930 1185.973251" style="stroke:rgb(0.000000%,0.000000%,0.000000%); stroke-width: 39.850714;stroke-linecap: square;stroke-linejoin: bevel;stroke-miterlimit: 10.000000;fill: none;" />
  </g>
  <g xmlns:ns0="http://www.w3.org/2000/svg" transform="matrix(0.939691,0.342024,-0.342024,0.939691,0.000000,0.000000)">
    <path d="M828.228142 350.110952C701.590777 396.203703,612.957535 508.701978,582.095294 640.347916C555.157451 755.253998,573.817617 874.526571,614.167681 985.386208C654.517745 1096.245845,716.890915 1199.608022,811.387214 1270.315176C919.650033 1351.323178,1059.859740 1380.528474,1186.497105 1334.435722C1313.134469 1288.342970,1401.767712 1175.844696,1432.629952 1044.198758C1459.567796 929.292675,1440.907630 810.020103,1400.557566 699.160466C1360.207502 588.300828,1297.834337 484.938666,1203.338032 414.231498C1095.075219 333.223510,954.865507 304.018200,828.228142 350.110952Z" style="stroke:rgb(0.000000%,0.000000%,0.000000%); stroke-width: 39.850714;stroke-linecap: square;stroke-linejoin: bevel;stroke-miterlimit: 10.000000;fill: none;" />
  </g>
  </g><g transform='translate(3160.9567392, 358.98750816666666)'><g xmlns:ns0="http://www.w3.org/2000/svg" transform="matrix(0.939691,0.342024,-0.342024,0.939691,0.000000,0.000000)">
    <path d="M561.772919 -32.419092L1072.208576 1369.975514L1465.403518 1226.862643" style="stroke:rgb(0.000000%,0.000000%,0.000000%); stroke-width: 39.850714;stroke-linecap: square;stroke-linejoin: bevel;stroke-miterlimit: 10.000000;fill: none;" />
  </g>
  </g><g transform='translate(4478.0220472, 358.98750816666666)'><g xmlns:ns0="http://www.w3.org/2000/svg" transform="matrix(0.939691,0.342024,-0.342024,0.939691,0.000000,0.000000)">
    <path d="M909.313872 1429.265007L391.381576 6.273787" style="stroke:rgb(0.000000%,0.000000%,0.000000%); stroke-width: 39.850714;stroke-linecap: square;stroke-linejoin: bevel;stroke-miterlimit: 10.000000;fill: none;" />
  </g>
  <g xmlns:ns0="http://www.w3.org/2000/svg" transform="matrix(0.939691,0.342024,-0.342024,0.939691,0.000000,0.000000)">
    <path d="M1111.028789 253.237072L863.513709 837.376314L1527.191639 1204.373352" style="stroke:rgb(0.000000%,0.000000%,0.000000%); stroke-width: 39.850714;stroke-linecap: square;stroke-linejoin: bevel;stroke-miterlimit: 10.000000;fill: none;" />
  </g>
  </g><g transform='translate(5795.0873552, 358.98750816666666)'><g xmlns:ns0="http://www.w3.org/2000/svg" transform="matrix(0.939691,0.342024,-0.342024,0.939691,0.000000,0.000000)">
    <path d="M605.492435 437.239334L942.516671 314.571159L1296.891400 1288.196731" style="stroke:rgb(0.000000%,0.000000%,0.000000%); stroke-width: 39.850714;stroke-linecap: square;stroke-linejoin: bevel;stroke-miterlimit: 10.000000;fill: none;" />
  </g>
  <g xmlns:ns0="http://www.w3.org/2000/svg" transform="matrix(0.939691,0.342024,-0.342024,0.939691,0.000000,0.000000)">
    <path d="M781.294168 -128.370997C758.847766 -120.201082,740.800881 -102.755527,733.561749 -80.028052C727.922232 -62.322645,729.565827 -43.293410,735.921967 -25.830257C742.278106 -8.367105,753.250909 7.266538,768.951918 17.204541C789.106442 29.961412,814.144957 31.724987,836.591359 23.555072C859.037775 15.385153,877.084660 -2.060402,884.323797 -24.787863C889.963315 -42.493271,888.319719 -61.522505,881.963580 -78.985658C875.607440 -96.448810,864.634638 -112.082453,848.933628 -122.020456C828.779099 -134.777342,803.740584 -136.540916,781.294168 -128.370997Z" style="stroke:rgb(0.000000%,0.000000%,0.000000%); stroke-width: 39.850714;stroke-linecap: square;stroke-linejoin: bevel;stroke-miterlimit: 10.000000;fill: none;" />
  </g>
  </g><g transform='translate(7112.1526632000005, 358.98750816666666)'><g xmlns:ns0="http://www.w3.org/2000/svg" transform="matrix(0.939691,0.342024,-0.342024,0.939691,0.000000,0.000000)">
    <path d="M465.065670 488.351074L819.440398 1461.976646" style="stroke:rgb(0.000000%,0.000000%,0.000000%); stroke-width: 39.850714;stroke-linecap: square;stroke-linejoin: bevel;stroke-miterlimit: 10.000000;fill: none;" />
  </g>
  <g xmlns:ns0="http://www.w3.org/2000/svg" transform="matrix(0.939691,0.342024,-0.342024,0.939691,0.000000,0.000000)">
    <path d="M1549.659577 1196.195599L1352.027517 653.212107C1316.496986 555.593880,1265.505980 462.188482,1183.227515 398.650833C1095.036933 330.547704,980.698807 304.950661,873.164019 333.755445C741.535843 369.013989,644.130629 477.105872,606.359270 608.616074C577.043533 710.685968,585.487510 819.203625,621.808338 918.993154" style="stroke:rgb(0.000000%,0.000000%,0.000000%); stroke-width: 39.850714;stroke-linecap: square;stroke-linejoin: bevel;stroke-miterlimit: 10.000000;fill: none;" />
  </g>
  </g><g transform='translate(8429.2179712, 358.98750816666666)'><g xmlns:ns0="http://www.w3.org/2000/svg" transform="matrix(0.939691,0.342024,-0.342024,0.939691,0.000000,0.000000)">
    <path d="M1236.999999 249.794817L1543.670437 1092.355408C1616.745270 1293.124595,1569.736347 1521.147282,1403.906535 1652.122289C1267.883118 1759.555741,1080.196739 1773.473048,929.815316 1687.277066" style="stroke:rgb(0.000000%,0.000000%,0.000000%); stroke-width: 39.850714;stroke-linecap: square;stroke-linejoin: bevel;stroke-miterlimit: 10.000000;fill: none;" />
  </g>
  <g xmlns:ns0="http://www.w3.org/2000/svg" transform="matrix(0.939691,0.342024,-0.342024,0.939691,0.000000,0.000000)">
    <path d="M828.228142 350.110952C702.076496 396.026914,612.716632 507.047687,581.219094 637.940602C553.946971 751.274104,571.878840 869.199884,611.733790 978.699223C651.588740 1088.198562,713.654101 1190.060883,807.395633 1259.348520C915.661071 1339.371297,1055.477676 1366.977715,1181.629323 1321.061752C1307.780969 1275.145790,1397.140819 1164.125022,1428.638371 1033.232102C1455.910494 919.898600,1437.978625 801.972820,1398.123675 692.473481C1358.268725 582.974142,1296.203364 481.111821,1202.461832 411.824184C1094.196394 331.801407,954.379789 304.194989,828.228142 350.110952Z" style="stroke:rgb(0.000000%,0.000000%,0.000000%); stroke-width: 39.850714;stroke-linecap: square;stroke-linejoin: bevel;stroke-miterlimit: 10.000000;fill: none;" />
  </g>
  </g><g transform='translate(526.8261232, 2512.9125571666664)'><g xmlns:ns0="http://www.w3.org/2000/svg" transform="matrix(0.939691,0.342024,-0.342024,0.939691,0.000000,0.000000)">
    <path d="M879.143386 891.971000L886.345965 335.015855L717.833847 396.349943L1579.692047 1191.322851L703.133089 1334.677387" style="stroke:rgb(0.000000%,0.000000%,0.000000%); stroke-width: 39.850714;stroke-linecap: square;stroke-linejoin: bevel;stroke-miterlimit: 10.000000;fill: none;" />
  </g>
  <path xmlns:ns0="http://www.w3.org/2000/svg" d="M1.000000 2152.205566L1316.065308 2152.205566L1316.065308 0.280518L1.000000 0.280518Z" style="stroke:rgb(100.000000%,100.000000%,100.000000%); stroke-width: 2.000000;stroke-linecap: square;stroke-linejoin: bevel;stroke-miterlimit: 10.000000;fill: none;" />
</g><g transform='translate(1843.8914312, 2512.9125571666664)'><g xmlns:ns0="http://www.w3.org/2000/svg" transform="matrix(0.939691,0.342024,-0.342024,0.939691,0.000000,0.000000)">
    <path d="M871.064651 467.801963L1064.521983 142.940254" style="stroke:rgb(0.000000%,0.000000%,0.000000%); stroke-width: 39.850714;stroke-linecap: square;stroke-linejoin: bevel;stroke-miterlimit: 10.000000;fill: none;" />
  </g>
  <g xmlns:ns0="http://www.w3.org/2000/svg" transform="matrix(0.939691,0.342024,-0.342024,0.939691,0.000000,0.000000)">
    <path d="M554.276280 -53.015706L1072.208576 1369.975514L1465.403518 1226.862643" style="stroke:rgb(0.000000%,0.000000%,0.000000%); stroke-width: 39.850714;stroke-linecap: square;stroke-linejoin: bevel;stroke-miterlimit: 10.000000;fill: none;" />
  </g>
  </g><g transform='translate(3160.9567392, 2512.9125571666664)'><g xmlns:ns0="http://www.w3.org/2000/svg" transform="matrix(0.939691,0.342024,-0.342024,0.939691,0.000000,0.000000)">
    <path d="M605.492435 437.239334L942.516671 314.571159L1296.891400 1288.196731" style="stroke:rgb(0.000000%,0.000000%,0.000000%); stroke-width: 39.850714;stroke-linecap: square;stroke-linejoin: bevel;stroke-miterlimit: 10.000000;fill: none;" />
  </g>
  <g xmlns:ns0="http://www.w3.org/2000/svg" transform="matrix(0.939691,0.342024,-0.342024,0.939691,0.000000,0.000000)">
    <path d="M773.116415 -150.838935L853.952238 -82.542526C900.855501 -43.186195,894.984243 27.745991,844.769112 46.023011C794.553996 64.300025,744.461654 13.737153,755.093438 -46.560459Z" style="stroke:rgb(0.000000%,0.000000%,0.000000%); stroke-width: 39.850714;stroke-linecap: square;stroke-linejoin: bevel;stroke-miterlimit: 10.000000;fill: none;" />
  </g>
  </g><g transform='translate(4478.0220472, 2512.9125571666664)'><g xmlns:ns0="http://www.w3.org/2000/svg" transform="matrix(0.939691,0.342024,-0.342024,0.939691,0.000000,0.000000)">
    <path d="M1287.265267 450.810695L1077.797617 326.218415" style="stroke:rgb(0.000000%,0.000000%,0.000000%); stroke-width: 39.850714;stroke-linecap: square;stroke-linejoin: bevel;stroke-miterlimit: 10.000000;fill: none;" />
  </g>
  <g xmlns:ns0="http://www.w3.org/2000/svg" transform="matrix(0.939691,0.342024,-0.342024,0.939691,0.000000,0.000000)">
    <path d="M936.077429 310.856578L720.380232 389.364824" style="stroke:rgb(0.000000%,0.000000%,0.000000%); stroke-width: 39.850714;stroke-linecap: square;stroke-linejoin: bevel;stroke-miterlimit: 10.000000;fill: none;" />
  </g>
  <g xmlns:ns0="http://www.w3.org/2000/svg" transform="matrix(0.939691,0.342024,-0.342024,0.939691,0.000000,0.000000)">
    <path d="M621.690535 492.228425L541.317049 722.315442" style="stroke:rgb(0.000000%,0.000000%,0.000000%); stroke-width: 39.850714;stroke-linecap: square;stroke-linejoin: bevel;stroke-miterlimit: 10.000000;fill: none;" />
  </g>
  <g xmlns:ns0="http://www.w3.org/2000/svg" transform="matrix(0.939691,0.342024,-0.342024,0.939691,0.000000,0.000000)">
    <path d="M543.148028 877.648869L629.016080 1113.566737" style="stroke:rgb(0.000000%,0.000000%,0.000000%); stroke-width: 39.850714;stroke-linecap: square;stroke-linejoin: bevel;stroke-miterlimit: 10.000000;fill: none;" />
  </g>
  <g xmlns:ns0="http://www.w3.org/2000/svg" transform="matrix(0.939691,0.342024,-0.342024,0.939691,0.000000,0.000000)">
    <path d="M727.070569 1232.666093L935.369940 1354.048587" style="stroke:rgb(0.000000%,0.000000%,0.000000%); stroke-width: 39.850714;stroke-linecap: square;stroke-linejoin: bevel;stroke-miterlimit: 10.000000;fill: none;" />
  </g>
  <g xmlns:ns0="http://www.w3.org/2000/svg" transform="matrix(0.939691,0.342024,-0.342024,0.939691,0.000000,0.000000)">
    <path d="M1076.700701 1368.340496L1292.397898 1289.832250" style="stroke:rgb(0.000000%,0.000000%,0.000000%); stroke-width: 39.850714;stroke-linecap: square;stroke-linejoin: bevel;stroke-miterlimit: 10.000000;fill: none;" />
  </g>
  <g xmlns:ns0="http://www.w3.org/2000/svg" transform="matrix(0.939691,0.342024,-0.342024,0.939691,0.000000,0.000000)">
    <path d="M1391.477006 1188.038535L1473.018772 961.161303" style="stroke:rgb(0.000000%,0.000000%,0.000000%); stroke-width: 39.850714;stroke-linecap: square;stroke-linejoin: bevel;stroke-miterlimit: 10.000000;fill: none;" />
  </g>
  </g><g transform='translate(5795.0873552, 2512.9125571666664)'><g xmlns:ns0="http://www.w3.org/2000/svg" transform="matrix(0.939691,0.342024,-0.342024,0.939691,0.000000,0.000000)">
    <path d="M909.313872 1429.265007L391.381576 6.273787" style="stroke:rgb(0.000000%,0.000000%,0.000000%); stroke-width: 39.850714;stroke-linecap: square;stroke-linejoin: bevel;stroke-miterlimit: 10.000000;fill: none;" />
  </g>
  <g xmlns:ns0="http://www.w3.org/2000/svg" transform="matrix(0.939691,0.342024,-0.342024,0.939691,0.000000,0.000000)">
    <path d="M1111.028789 253.237072L863.513709 837.376314L1527.191639 1204.373352" style="stroke:rgb(0.000000%,0.000000%,0.000000%); stroke-width: 39.850714;stroke-linecap: square;stroke-linejoin: bevel;stroke-miterlimit: 10.000000;fill: none;" />
  </g>
  </g><g transform='translate(7112.1526632000005, 2512.9125571666664)'></g><g transform='translate(8429.2179712, 2512.9125571666664)'><g xmlns:ns0="http://www.w3.org/2000/svg" transform="matrix(0.939691,0.342024,-0.342024,0.939691,0.000000,0.000000)">
    <path d="M854.709145 422.866086L1056.704646 977.837899" style="stroke:rgb(0.000000%,0.000000%,0.000000%); stroke-width: 39.850714;stroke-linecap: square;stroke-linejoin: bevel;stroke-miterlimit: 10.000000;fill: none;" />
  </g>
  <g xmlns:ns0="http://www.w3.org/2000/svg" transform="matrix(0.939691,0.342024,-0.342024,0.939691,0.000000,0.000000)">
    <path d="M677.081356 1430.257533L1056.704646 977.837899" style="stroke:rgb(0.000000%,0.000000%,0.000000%); stroke-width: 39.850714;stroke-linecap: square;stroke-linejoin: bevel;stroke-miterlimit: 10.000000;fill: none;" />
  </g>
  <g xmlns:ns0="http://www.w3.org/2000/svg" transform="matrix(0.939691,0.342024,-0.342024,0.939691,0.000000,0.000000)">
    <path d="M1638.323437 1080.390077L1056.704646 977.837899" style="stroke:rgb(0.000000%,0.000000%,0.000000%); stroke-width: 39.850714;stroke-linecap: square;stroke-linejoin: bevel;stroke-miterlimit: 10.000000;fill: none;" />
  </g>
  <g xmlns:ns0="http://www.w3.org/2000/svg" transform="matrix(0.939691,0.342024,-0.342024,0.939691,0.000000,0.000000)">
    <path d="M854.709145 422.866086L1056.704646 977.837899" style="stroke:rgb(0.000000%,0.000000%,0.000000%); stroke-width: 39.850714;stroke-linecap: square;stroke-linejoin: bevel;stroke-miterlimit: 10.000000;fill: none;" />
  </g>
  </g></svg>