<svg xmlns="http://www.w3.org/2000/svg" xmlns:xlink="http://www.w3.org/1999/xlink" version="1.1" width="1317.065308" height="2153.925049" viewBox="0 0 1317.065308 2153.925049">
<!-- Original BoundingBox: -1.000000 -479.205566 1316.065308 1674.719482 -->
  <g transform="matrix(0.939691,0.342024,-0.342024,0.939691,0.000000,0.000000)">
    <path d="M828.228142 350.110952C701.590777 396.203703,612.957535 508.701978,582.095294 640.347916C555.157451 755.253998,573.817617 874.526571,614.167681 985.386208C654.517745 1096.245845,716.890915 1199.608022,811.387214 1270.315176C919.650033 1351.323178,1059.859740 1380.528474,1186.497105 1334.435722C1313.134469 1288.342970,1401.767712 1175.844696,1432.629952 1044.198758C1459.567796 929.292675,1440.907630 810.020103,1400.557566 699.160466C1360.207502 588.300828,1297.834337 484.938666,1203.338032 414.231498C1095.075219 333.223510,954.865507 304.018200,828.228142 350.110952Z" style="stroke:rgb(0.000000%,0.000000%,0.000000%); stroke-width: 39.850714;stroke-linecap: square;stroke-linejoin: bevel;stroke-miterlimit: 10.000000;fill: none;"/>
  </g>
  <g transform="matrix(0.939691,0.342024,-0.342024,0.939691,0.000000,0.000000)">
    <path d="M1221.423085 206.998081L793.302162 1477.548593" style="stroke:rgb(0.000000%,0.000000%,0.000000%); stroke-width: 39.850714;stroke-linecap: square;stroke-linejoin: bevel;stroke-miterlimit: 10.000000;fill: none;"/>
  </g>
  </svg>