<svg xmlns="http://www.w3.org/2000/svg" xmlns:xlink="http://www.w3.org/1999/xlink" version="1.1" width="1317.065308" height="2153.925049" viewBox="0 0 1317.065308 2153.925049">
<!-- Original BoundingBox: -1.000000 -479.205566 1316.065308 1674.719482 -->
  <g transform="matrix(0.939691,0.342024,-0.342024,0.939691,0.000000,0.000000)">
    <path d="M871.064651 467.801963L1064.521983 142.940254" style="stroke:rgb(0.000000%,0.000000%,0.000000%); stroke-width: 39.850714;stroke-linecap: square;stroke-linejoin: bevel;stroke-miterlimit: 10.000000;fill: none;"/>
  </g>
  <g transform="matrix(0.939691,0.342024,-0.342024,0.939691,0.000000,0.000000)">
    <path d="M554.276280 -53.015706L1072.208576 1369.975514L1465.403518 1226.862643" style="stroke:rgb(0.000000%,0.000000%,0.000000%); stroke-width: 39.850714;stroke-linecap: square;stroke-linejoin: bevel;stroke-miterlimit: 10.000000;fill: none;"/>
  </g>
  </svg>