<svg xmlns="http://www.w3.org/2000/svg" xmlns:xlink="http://www.w3.org/1999/xlink" version="1.1" width="1317.065308" height="2153.925049" viewBox="0 0 1317.065308 2153.925049">
<!-- Original BoundingBox: -1.000000 -479.205566 1316.065308 1674.719482 -->
  <g transform="matrix(0.939691,0.342024,-0.342024,0.939691,0.000000,0.000000)">
    <path d="M1146.413256 69.600079C1050.258505 -39.946336,892.629058 -71.481050,761.730673 -7.357981C631.788504 56.296662,562.955866 195.241895,546.553583 340.313014C529.153534 494.208944,567.328175 646.970194,620.239129 792.340204C673.150083 937.710214,742.100692 1079.269802,854.353061 1185.975578C960.168571 1286.562556,1102.210157 1348.754981,1242.667811 1313.991026C1384.159052 1278.971260,1484.639179 1153.491283,1487.881856 1007.766754" style="stroke:rgb(0.000000%,0.000000%,0.000000%); stroke-width: 39.850714;stroke-linecap: square;stroke-linejoin: bevel;stroke-miterlimit: 10.000000;fill: none;"/>
  </g>
  </svg>