<svg xmlns="http://www.w3.org/2000/svg" xmlns:xlink="http://www.w3.org/1999/xlink" version="1.1" width="1317.065308" height="2153.925049" viewBox="0 0 1317.065308 2153.925049">
<!-- Original BoundingBox: -1.000000 -479.205566 1316.065308 1674.719482 -->
  <g transform="matrix(0.939691,0.342024,-0.342024,0.939691,0.000000,0.000000)">
    <path d="M639.219361 809.536448L897.604953 715.490721C998.156462 678.892552,1091.381359 617.641883,1136.959700 521.097875C1177.908807 434.359505,1172.441377 334.579516,1139.580255 244.295343C1106.719132 154.011170,1046.769505 74.061303,959.646029 33.938067C862.673378 -10.721037,751.887886 2.282841,651.336378 38.881010L392.950786 132.926737L869.993690 1443.576545" style="stroke:rgb(0.000000%,0.000000%,0.000000%); stroke-width: 39.850714;stroke-linecap: square;stroke-linejoin: bevel;stroke-miterlimit: 10.000000;fill: none;"/>
  </g>
  <g transform="matrix(0.939691,0.342024,-0.342024,0.939691,0.000000,0.000000)">
    <path d="M953.775659 695.046026L1532.809053 1202.328758" style="stroke:rgb(0.000000%,0.000000%,0.000000%); stroke-width: 39.850714;stroke-linecap: square;stroke-linejoin: bevel;stroke-miterlimit: 10.000000;fill: none;"/>
  </g>
  </svg>