<svg xmlns="http://www.w3.org/2000/svg" xmlns:xlink="http://www.w3.org/1999/xlink" version="1.1" width="1317.065308" height="2153.925049" viewBox="0 0 1317.065308 2153.925049">
<!-- Original BoundingBox: -1.000000 -479.205566 1316.065308 1674.719482 -->
  <g transform="matrix(0.939691,0.342024,-0.342024,0.939691,0.000000,0.000000)">
    <path d="M1186.497105 1334.435722C1257.319474 1308.658196,1317.650187 1260.402045,1359.339909 1197.614611C1415.955121 1112.348411,1433.826502 1008.757569,1429.273355 906.516122C1422.611738 756.929013,1369.912984 614.966120,1318.778782 474.477641C1267.644581 333.989163,1216.761145 191.365541,1125.710636 72.493823C1063.478439 -8.753930,983.200750 -76.621028,885.022714 -105.546457C812.727395 -126.846261,735.492945 -125.032222,664.670575 -99.254697C593.848206 -73.477171,533.517493 -25.221020,491.827771 37.566414C435.212558 122.832615,417.341177 226.423456,421.894325 328.664903C428.555942 478.252013,481.254696 620.214905,532.388897 760.703384C583.523099 901.191862,634.406535 1043.815484,725.457043 1162.687202C787.689241 1243.934955,867.966930 1311.802053,966.144966 1340.727482C1038.440285 1362.027286,1115.674735 1360.213247,1186.497105 1334.435722Z" style="stroke:rgb(0.000000%,0.000000%,0.000000%); stroke-width: 39.850714;stroke-linecap: square;stroke-linejoin: bevel;stroke-miterlimit: 10.000000;fill: none;"/>
  </g>
  </svg>