<svg xmlns="http://www.w3.org/2000/svg" xmlns:xlink="http://www.w3.org/1999/xlink" version="1.1" width="1317.065308" height="2153.925049" viewBox="0 0 1317.065308 2153.925049">
<!-- Original BoundingBox: -1.000000 -479.205566 1316.065308 1674.719482 -->
  <path d="M632.629486 1879.230255L622.655945 1869.278580L602.730713 1889.203812L612.704254 1899.155487C628.485031 1914.901657,647.736389 1921.896484,666.593933 1921.896484L686.519165 1921.896484C726.298752 1921.896484,764.325943 1890.770203,764.325958 1845.006119L764.325958 1825.080887C764.325958 1823.229050,764.263687 1821.353241,764.136749 1819.454559C761.600082 1781.511581,729.880569 1754.481476,694.765900 1754.481476L674.840668 1754.481476C666.161407 1754.481476,657.274734 1756.132812,648.570038 1759.678864L668.495270 1759.678864L668.495270 1649.805084L668.495270 1629.879868L648.570038 1649.805099L648.570038 1669.730316L648.570038 1779.604095L668.495270 1779.604095C677.199966 1776.058044,686.086639 1774.406708,694.765900 1774.406708L674.840668 1774.406708C709.955338 1774.406708,741.674850 1801.436813,744.211517 1839.379791C744.338455 1841.278473,744.400726 1843.154282,744.400726 1845.006119L744.400726 1825.080887C744.400711 1870.844971,706.373505 1901.971252,666.593918 1901.971252L686.519150 1901.971252C667.661606 1901.971252,648.410263 1894.976425,632.629486 1879.230255Z" style="fill: rgb(0.000000%,0.000000%,0.000000%);stroke: none;"/>
  </svg>