<svg xmlns="http://www.w3.org/2000/svg" xmlns:xlink="http://www.w3.org/1999/xlink" version="1.1" width="1317.065308" height="2153.925049" viewBox="0 0 1317.065308 2153.925049">
<!-- Original BoundingBox: -1.000000 -479.205566 1316.065308 1674.719482 -->
  <g transform="matrix(0.939691,0.342024,-0.342024,0.939691,0.000000,0.000000)">
    <path d="M573.069459 173.388246L498.105574 -32.571010" style="stroke:rgb(0.000000%,0.000000%,0.000000%); stroke-width: 39.850714;stroke-linecap: square;stroke-linejoin: bevel;stroke-miterlimit: 10.000000;fill: none;"/>
  </g>
  <g transform="matrix(0.939691,0.342024,-0.342024,0.939691,0.000000,0.000000)">
    <path d="M910.093695 50.720070L835.129810 -155.239185" style="stroke:rgb(0.000000%,0.000000%,0.000000%); stroke-width: 39.850714;stroke-linecap: square;stroke-linejoin: bevel;stroke-miterlimit: 10.000000;fill: none;"/>
  </g>
  </svg>