<svg xmlns="http://www.w3.org/2000/svg" xmlns:xlink="http://www.w3.org/1999/xlink" version="1.1" width="1354.916016" height="2153.925049" viewBox="0 0 1354.916016 2153.925049">
<!-- Original BoundingBox: -19.925354 -479.205566 1334.990662 1674.719482 -->
  <g transform="matrix(0.939691,0.342024,-0.342024,0.939691,0.000000,0.000000)">
    <path d="M406.399302 1061.008567L1642.154835 611.225258" style="stroke:rgb(0.000000%,0.000000%,0.000000%); stroke-width: 39.850714;stroke-linecap: square;stroke-linejoin: bevel;stroke-miterlimit: 10.000000;fill: none;"/>
  </g>
  </svg>