<svg xmlns="http://www.w3.org/2000/svg" xmlns:xlink="http://www.w3.org/1999/xlink" version="1.1" width="1317.065308" height="2153.925049" viewBox="0 0 1317.065308 2153.925049">
<!-- Original BoundingBox: -1.000000 -479.205566 1316.065308 1674.719482 -->
  <g transform="matrix(0.939691,0.342024,-0.342024,0.939691,0.000000,0.000000)">
    <path d="M919.385869 -185.906229C811.336267 -94.269057,741.663426 34.622187,724.179719 175.215247C703.636270 340.412882,756.415550 502.351105,813.242428 658.479904C870.069305 814.608704,933.731060 972.585985,1055.656071 1085.928756C1159.421535 1182.390245,1295.644109 1236.340824,1437.318165 1237.084991" style="stroke:rgb(0.000000%,0.000000%,0.000000%); stroke-width: 39.850714;stroke-linecap: square;stroke-linejoin: bevel;stroke-miterlimit: 10.000000;fill: none;"/>
  </g>
  </svg>