<svg xmlns="http://www.w3.org/2000/svg" xmlns:xlink="http://www.w3.org/1999/xlink" version="1.1" width="1317.065308" height="2153.925049" viewBox="0 0 1317.065308 2153.925049">
<!-- Original BoundingBox: -1.000000 -479.205566 1316.065308 1674.719482 -->
  <g transform="matrix(0.939691,0.342024,-0.342024,0.939691,0.000000,0.000000)">
    <path d="M1577.744930 1185.973251L1409.232812 1247.307339C1287.066396 1277.454604,1158.608046 1232.787420,1081.500750 1133.349215C986.044324 1010.247833,985.509568 818.415092,843.909472 742.735963C747.922148 691.434882,635.277777 723.254471,532.388897 760.703384C634.997802 723.356375,740.398810 674.341919,782.575384 574.223845C857.676510 395.950013,681.861398 217.919643,712.959128 33.415514C729.276654 -63.397057,798.836826 -142.029470,891.300516 -175.683881L1059.812634 -237.017969" style="stroke:rgb(0.000000%,0.000000%,0.000000%); stroke-width: 39.850714;stroke-linecap: square;stroke-linejoin: bevel;stroke-miterlimit: 10.000000;fill: none;"/>
  </g>
  </svg>