<svg xmlns="http://www.w3.org/2000/svg" xmlns:xlink="http://www.w3.org/1999/xlink" version="1.1" width="1317.065308" height="2153.925049" viewBox="0 0 1317.065308 2153.925049">
<!-- Original BoundingBox: -1.000000 -479.205566 1316.065308 1674.719482 -->
  <g transform="matrix(0.939691,0.342024,-0.342024,0.939691,0.000000,0.000000)">
    <path d="M889.805622 519.291777L644.956424 1069.976628L1186.497105 1334.435722" style="stroke:rgb(0.000000%,0.000000%,0.000000%); stroke-width: 39.850714;stroke-linecap: square;stroke-linejoin: bevel;stroke-miterlimit: 10.000000;fill: none;"/>
  </g>
  <g transform="matrix(0.939691,0.342024,-0.342024,0.939691,0.000000,0.000000)">
    <path d="M1114.488446 437.512993L869.639248 988.197844L1411.179929 1252.656938" style="stroke:rgb(0.000000%,0.000000%,0.000000%); stroke-width: 39.850714;stroke-linecap: square;stroke-linejoin: bevel;stroke-miterlimit: 10.000000;fill: none;"/>
  </g>
  </svg>