<svg xmlns="http://www.w3.org/2000/svg" xmlns:xlink="http://www.w3.org/1999/xlink" version="1.1" width="1317.065308" height="2153.925049" viewBox="0 0 1317.065308 2153.925049">
<!-- Original BoundingBox: -1.000000 -479.205566 1316.065308 1674.719482 -->
  <g transform="matrix(0.939691,0.342024,-0.342024,0.939691,0.000000,0.000000)">
    <path d="M1156.464635 1339.308471L1122.390142 1245.690627L1178.560848 1225.245931L1212.635341 1318.863775Z" style="stroke:rgb(0.000000%,0.000000%,0.000000%); stroke-width: 39.850714;stroke-linecap: square;stroke-linejoin: bevel;stroke-miterlimit: 10.000000;fill: none;"/>
  </g>
  <g transform="matrix(0.939691,0.342024,-0.342024,0.939691,0.000000,0.000000)">
    <path d="M1027.807319 898.444043C1018.547045 880.703167,1011.672599 861.815995,1007.362623 842.273337C963.489966 643.342016,1170.261355 479.634446,1152.743940 280.461861C1143.346746 173.616017,1071.903005 84.275858,975.972591 35.101745C892.065437 -7.909230,794.490993 -18.044246,705.559967 13.086715C536.478963 72.274769,443.606303 254.621915,504.199129 421.097457" style="stroke:rgb(0.000000%,0.000000%,0.000000%); stroke-width: 39.850714;stroke-linecap: square;stroke-linejoin: bevel;stroke-miterlimit: 10.000000;fill: none;"/>
  </g>
  </svg>