<svg xmlns="http://www.w3.org/2000/svg" xmlns:xlink="http://www.w3.org/1999/xlink" version="1.1" width="1317.065308" height="2153.925049" viewBox="0 0 1317.065308 2153.925049">
<!-- Original BoundingBox: -1.000000 -479.205566 1316.065308 1674.719482 -->
  <g transform="matrix(0.939691,0.342024,-0.342024,0.939691,0.000000,0.000000)">
    <path d="M680.247489 -56.457960C637.449964 -40.880759,602.217030 -8.604282,587.711542 34.473694C576.694369 67.192159,579.122454 102.633175,590.932464 135.080545C602.742474 167.527915,623.663702 196.237885,653.134506 214.219781C691.936510 237.895181,739.673443 239.972771,782.470969 224.395570C825.268494 208.818369,860.501423 176.541877,875.006916 133.463916C886.024104 100.745446,883.596004 65.304435,871.785994 32.857065C859.975984 0.409695,839.054756 -28.300275,809.583952 -46.282171C770.781948 -69.957571,723.045014 -72.035161,680.247489 -56.457960Z" style="stroke:rgb(0.000000%,0.000000%,0.000000%); stroke-width: 39.850714;stroke-linecap: square;stroke-linejoin: bevel;stroke-miterlimit: 10.000000;fill: none;"/>
  </g>
  </svg>